{
  "project_info": {
    "project_number": "655542273878",
    "firebase_url": "https://the-insiders-fed46.firebaseio.com",
    "project_id": "the-insiders-fed46",
    "storage_bucket": "the-insiders-fed46.appspot.com"
  },
  "client": [
    {
      "client_info": {
        "mobilesdk_app_id": "1:655542273878:android:aae8c9ad12ccfd23",
        "android_client_info": {
          "package_name": "com.livefitter.theinsiders"
        }
      },
      "oauth_client": [
        {
          "client_id": "655542273878-tcv3bltvq7ip81n66opt1afur6ujs8rg.apps.googleusercontent.com",
          "client_type": 3
        }
      ],
      "api_key": [
        {
          "current_key": "AIzaSyBLeZ1cLHpK3Moajhf10kvrDW9-VkR47Ps"
        }
      ],
      "services": {
        "analytics_service": {
          "status": 1
        },
        "appinvite_service": {
          "status": 1,
          "other_platform_oauth_client": []
        },
        "ads_service": {
          "status": 2
        }
      }
    }
  ],
  "configuration_version": "1"
}